{
  "name": "Antitoxin v4",
  "type": "consumable",
  "img": "icons/consumables/potions/bottle-round-corked-pink.webp",
  "system": {
    "description": {
      "value": "<p>A creature that drinks this vial of liquid gains advantage on saving throws against poison for 1 hour. It confers no benefit to undead or constructs.</p>",
      "chat": ""
    },
    "source": {
      "custom": "SRD 5.1",
      "revision": 1,
      "rules": "2024"
    },
    "quantity": 1,
    "weight": {
      "value": 0.1,
      "units": "lb"
    },
    "price": {
      "value": 50,
      "denomination": "gp"
    },
    "attunement": "",
    "rarity": "common",
    "identified": true,
    "uses": {
      "max": "1",
      "autoDestroy": true,
      "spent": 0,
      "recovery": []
    },
    "damage": {
      "base": {
        "number": null,
        "denomination": null,
        "types": [],
        "custom": {
          "enabled": false
        },
        "scaling": {
          "number": 1
        }
      },
      "replace": false
    },
    "unidentified": {
      "description": ""
    },
    "type": {
      "value": "potion",
      "subtype": ""
    },
    "activities": {
      "dnd5eactivity000": {
        "_id": "dnd5eactivity000",
        "type": "utility",
        "activation": {
          "type": "action",
          "value": 1,
          "condition": "",
          "override": false
        },
        "consumption": {
          "targets": [
            {
              "type": "itemUses",
              "value": "1",
              "target": "",
              "scaling": {}
            }
          ],
          "scaling": {
            "allowed": false,
            "max": ""
          },
          "spellSlot": true
        },
        "description": {
          "chatFlavor": ""
        },
        "duration": {
          "concentration": false,
          "value": "1",
          "units": "hour",
          "special": "",
          "override": false
        },
        "effects": [
          {
            "_id": "dmXIoxCscoqGbIYm"
          }
        ],
        "range": {
          "units": "self",
          "special": "",
          "override": false
        },
        "target": {
          "template": {
            "count": "",
            "contiguous": false,
            "type": "",
            "size": "",
            "width": "",
            "height": "",
            "units": ""
          },
          "affects": {
            "count": "",
            "type": "self",
            "choice": false,
            "special": ""
          },
          "prompt": true,
          "override": false
        },
        "uses": {
          "spent": 0,
          "max": "",
          "recovery": []
        },
        "roll": {
          "formula": "",
          "name": "",
          "prompt": false,
          "visible": false
        },
        "sort": 0,
        "useConditionText": "![\"undead\", \"construct\"].includes(raceOrType)",
        "effectConditionText": "",
        "name": "",
        "macroData": {
          "name": "",
          "command": ""
        },
        "ignoreTraits": {
          "idi": false,
          "idr": false,
          "idv": false,
          "ida": false
        },
        "midiProperties": {
          "forceDialog": false,
          "confirmTargets": "default",
          "automationOnly": false,
          "identifier": "",
          "ignoreTraits": [],
          "triggeredActivityId": "none",
          "triggeredActivityConditionText": "",
          "triggeredActivityTargets": "targets",
          "triggeredActivityRollAs": "self",
          "autoTargetType": "any",
          "autoTargetAction": "default",
          "otherActivityCompatible": true
        }
      }
    },
    "identifier": "antitoxin",
    "container": null,
    "magicalBonus": null,
    "properties": [],
    "attuned": false,
    "equipped": false
  },
  "effects": [
    {
      "changes": [
        {
          "key": "flags.midi-qol.onUseMacroName",
          "mode": 0,
          "value": "ItemMacro,preTargetSave",
          "priority": 20
        }
      ],
      "transfer": false,
      "_id": "dmXIoxCscoqGbIYm",
      "disabled": false,
      "duration": {
        "startTime": null,
        "seconds": null,
        "combat": null,
        "rounds": null,
        "turns": null,
        "startRound": null,
        "startTurn": null
      },
      "origin": null,
      "tint": "#ffffff",
      "flags": {
        "dfreds-convenient-effects": {
          "description": ""
        },
        "dae": {
          "selfTarget": false,
          "selfTargetAlways": false,
          "stackable": "none",
          "durationExpression": "",
          "macroRepeat": "none",
          "specialDuration": []
        },
        "core": {
          "statusId": ""
        },
        "ActiveAuras": {
          "isAura": false,
          "aura": "None",
          "radius": "undefined",
          "alignment": "",
          "type": "",
          "ignoreSelf": false,
          "height": false,
          "hidden": false,
          "displayTemp": false,
          "hostile": false,
          "onlyOnce": false
        }
      },
      "name": "Antitoxin",
      "description": "",
      "statuses": [],
      "_stats": {
        "compendiumSource": null,
        "duplicateSource": null,
        "coreVersion": "13.337",
        "systemId": "dnd5e",
        "systemVersion": "4.2.2",
        "createdTime": null,
        "modifiedTime": null,
        "lastModifiedBy": null,
        "exportSource": null
      },
      "img": "icons/consumables/potions/bottle-round-corked-pink.webp",
      "type": "base",
      "system": {},
      "sort": 0,
      "_key": "!items.effects!bIVzHw94NXZwFAso.dmXIoxCscoqGbIYm"
    }
  ],
  "flags": {
    "rest-recovery": {
      "data": {
        "recovery": {
          "enabled": false
        }
      }
    },
    "itemacro": {
      "macro": {
        "name": "Antitoxin",
        "type": "script",
        "scope": "global",
        "command": "// Original macro from @thatlonelybugbear\nconst { options: {token:defenderToken, actor:defenderActor }, actor:attackerActor, workflow: {item: attackingItem, saveDetails: saveDetails} } = args[0] ?? {};\nif (!attackerActor || !defenderToken || !defenderActor || !attackingItem || !saveDetails) return;\nif (attackingItem.system.formula.includes(\"poison\")\n    || attackingItem.effects.some(eff=>eff.label === \"Poisoned\") \n    || attackingItem.effects.some(eff=>eff.changes.some(c=>[\"Poisoned (CE)\", \"Poisoned\"].some(con=>c.value.includes(con)))))\n    saveDetails.advantage = true;",
        "author": "oKTPW6AHSqX8CsNe",
        "_id": null,
        "img": "icons/svg/dice-target.svg",
        "folder": null,
        "sort": 0,
        "ownership": {
          "default": 0
        },
        "flags": {},
        "_stats": {
          "systemId": null,
          "systemVersion": null,
          "coreVersion": null,
          "createdTime": null,
          "modifiedTime": null,
          "lastModifiedBy": null
        }
      }
    },
    "core": {},
    "siftoolkit": {
      "SIFData": {
        "ignoreDuration": false,
        "texture": "",
        "useTexture": false,
        "alpha": 50,
        "coneOrigin": 1,
        "loopAnimations": true,
        "playTemplateAudio": false,
        "playDamageAudio": false,
        "playSaveAudio": false,
        "clip": "",
        "volume": 100
      }
    },
    "magicitems": {
      "enabled": false,
      "equipped": false,
      "attuned": false,
      "charges": "0",
      "chargeType": "c1",
      "destroy": false,
      "destroyFlavorText": "reaches 0 charges: it crumbles into ashes and is destroyed.",
      "rechargeable": false,
      "recharge": "0",
      "rechargeType": "t1",
      "rechargeUnit": "r1",
      "sorting": "l"
    },
    "scene-packer": {
      "hash": "cc495cf8b92eeb54a29c7132bbebd787eea06ea9",
      "sourceId": "Item.ybAwzUxC9lDuBAqY"
    },
    "cf": {
      "id": "temp_mxc6kjqa6kp"
    },
    "midiProperties": {
      "confirmTargets": "default",
      "autoFailFriendly": false,
      "autoSaveFriendly": false,
      "critOther": false,
      "offHandWeapon": false,
      "magicdam": false,
      "magiceffect": false,
      "noConcentrationCheck": false,
      "toggleEffect": false,
      "ignoreTotalCover": false,
      "idr": false,
      "idi": false,
      "idv": false,
      "ida": false
    },
    "midi-qol": {
      "rollAttackPerTarget": "default",
      "itemCondition": "",
      "effectCondition": "",
      "reactionCondition": "",
      "otherCondition": "",
      "AoETargetType": "any",
      "AoETargetTypeIncludeSelf": true,
      "autoTarget": "default",
      "removeAttackDamageButtons": "default"
    },
    "dnd5e": {
      "persistSourceMigration": true,
      "migratedUses": 1,
      "dependents": [
        {
          "uuid": "Actor.nDUJNncT2UaTeVx4.ActiveEffect.cpBdFIuxNmfJwFOb"
        }
      ],
      "riders": {
        "activity": [],
        "effect": []
      }
    },
    "dae": {
      "macro": {
        "name": "Antitoxin v4",
        "img": "icons/consumables/potions/bottle-round-corked-pink.webp",
        "type": "script",
        "scope": "global",
        "command": "// Original macro from @thatlonelybugbear\nconst { options: {token:defenderToken, actor:defenderActor }, actor:attackerActor, workflow: {activity, saveDetails: saveDetails} } = args[0] ?? {};\nif (!attackerActor || !defenderToken || !defenderActor || !activity || !saveDetails) return;\nconst otherActivity = activity.otherActivity;\nlet activityDoesPoison = activity.damage?.parts.some(p => p.types.has(\"poison\")) ||\n    otherActivity?.damage?.parts.some(p => p.types.has(\"poison\"))\nconst effects = [...(activity.effects ?? []), ...(otherActivity?.effects ?? [])];\nif (activityDoesPoison || effects.some(eff => eff.statuses.has(\"poisoned\")))\n    saveDetails.advantage = true;",
        "author": "Zl1BOUaPLwDEujaL",
        "ownership": {
          "default": 3
        },
        "_id": null,
        "folder": null,
        "sort": 0,
        "flags": {},
        "_stats": {
          "coreVersion": "12.331",
          "systemId": "dnd5e",
          "systemVersion": "4.0.4",
          "createdTime": null,
          "modifiedTime": null,
          "lastModifiedBy": null,
          "compendiumSource": null,
          "duplicateSource": null
        }
      }
    },
    "tidy5e-sheet": {
      "section": "",
      "actionSection": ""
    }
  },
  "_stats": {
    "compendiumSource": "Compendium.dnd5e.items.Fc6UfFNOnW80XMzi",
    "duplicateSource": null,
    "coreVersion": "13.337",
    "systemId": "dnd5e",
    "systemVersion": "4.2.2",
    "createdTime": 1738555836908,
    "modifiedTime": 1738555836908,
    "lastModifiedBy": "Zl1BOUaPLwDEujaL",
    "exportSource": {
      "worldId": "fr-myths-and-shadows",
      "uuid": null,
      "coreVersion": "10.291",
      "systemId": "dnd5e",
      "systemVersion": "2.1.5"
    }
  },
  "folder": "5Ok9Jbl5nOokCkqf",
  "_id": "bIVzHw94NXZwFAso",
  "sort": 100000,
  "ownership": {
    "default": 0,
    "Zl1BOUaPLwDEujaL": 3
  },
  "_key": "!items!bIVzHw94NXZwFAso"
}
