{
  "name": "Broach of Shielding v4",
  "type": "equipment",
  "img": "icons/equipment/neck/pendant-bronze-gem-blue.webp",
  "system": {
    "description": {
      "value": "<p><em>Wondrous item, (requires attunement)</em></p><p>While wearing this brooch, you have resistance to force damage, and you have immunity to damage from the <em>@Compendium[dnd5e.spells.41JIhpDyM9Anm7cs]{Magic Missile}</em> spell.</p><p><strong>midi-qol</strong>: implements damage resistance to force and if the actor is targeted by a spell called \"Magic Missile\" it will do no damage.<br />12.4.15</p>",
      "chat": ""
    },
    "source": {
      "custom": "SRD 5.1",
      "revision": 1,
      "rules": "2024"
    },
    "quantity": 1,
    "weight": {
      "value": 1,
      "units": "lb"
    },
    "price": {
      "value": 7500,
      "denomination": "gp"
    },
    "attunement": "required",
    "rarity": "uncommon",
    "identified": true,
    "cover": null,
    "crewed": false,
    "uses": {
      "max": "",
      "spent": 0,
      "recovery": []
    },
    "armor": {
      "value": 0,
      "dex": 0,
      "magicalBonus": null
    },
    "hp": {
      "value": 0,
      "max": 0,
      "dt": null,
      "conditions": ""
    },
    "speed": {
      "value": null,
      "conditions": ""
    },
    "strength": null,
    "proficient": 0,
    "unidentified": {
      "description": ""
    },
    "type": {
      "value": "trinket",
      "baseItem": ""
    },
    "activities": {},
    "identifier": "broach-of-shielding",
    "container": null,
    "properties": [
      "mgc"
    ],
    "attuned": true,
    "equipped": true
  },
  "effects": [
    {
      "origin": "Scene.GO63mgFDMhBfPVWf.Token.y8rDGEEuPTa8Oz4m.Actor.2W8ip8j0hvK2pQ7V.Item.GwIHAhyeTzBJUWil",
      "duration": {
        "startTime": null,
        "seconds": null,
        "combat": null,
        "rounds": null,
        "turns": null,
        "startRound": 249,
        "startTurn": 0
      },
      "disabled": false,
      "_id": "vfDPES065i7GQdeK",
      "changes": [
        {
          "key": "system.traits.dr.value",
          "mode": 2,
          "value": "force",
          "priority": 20
        },
        {
          "key": "flags.midi-qol.onUseMacroName",
          "mode": 0,
          "value": "ItemMacro, preTargetDamageApplication",
          "priority": 20
        }
      ],
      "tint": "#ffffff",
      "transfer": true,
      "flags": {
        "dfreds-convenient-effects": {
          "description": ""
        },
        "dae": {
          "selfTarget": false,
          "selfTargetAlways": false,
          "stackable": "noneName",
          "durationExpression": "",
          "macroRepeat": "none",
          "specialDuration": [],
          "disableCondition": "",
          "disableIncapacitated": false,
          "showIcon": false
        },
        "core": {
          "overlay": false
        },
        "ActiveAuras": {
          "isAura": false,
          "aura": "None",
          "nameOverride": "",
          "radius": "",
          "alignment": "",
          "type": "",
          "customCheck": "",
          "ignoreSelf": false,
          "height": false,
          "hidden": false,
          "displayTemp": false,
          "hostile": false,
          "onlyOnce": false,
          "wallsBlock": "system"
        }
      },
      "name": "Brooch of Shielding",
      "description": "",
      "statuses": [],
      "_stats": {
        "compendiumSource": null,
        "duplicateSource": null,
        "coreVersion": "13.337",
        "systemId": "dnd5e",
        "systemVersion": "4.2.2",
        "createdTime": null,
        "modifiedTime": null,
        "lastModifiedBy": null,
        "exportSource": null
      },
      "img": "icons/equipment/neck/pendant-bronze-gem-blue.webp",
      "type": "base",
      "system": {},
      "sort": 0,
      "_key": "!items.effects!dn8r51bPROedPcJC.vfDPES065i7GQdeK"
    }
  ],
  "flags": {
    "core": {},
    "scene-packer": {
      "hash": "fa0bf85ac82c1f67f3621b6fcb642e6e13e18924",
      "sourceId": "Compendium.world.backup-sample-items.Item.PmKoFztdy2JhYcgq"
    },
    "magicitems": {
      "enabled": false,
      "equipped": false,
      "attuned": false,
      "charges": "0",
      "chargeType": "c1",
      "destroy": false,
      "destroyFlavorText": "reaches 0 charges: it crumbles into ashes and is destroyed.",
      "rechargeable": false,
      "recharge": "0",
      "rechargeType": "t1",
      "rechargeUnit": "r1",
      "sorting": "l"
    },
    "itemacro": {
      "macro": {
        "name": "Broach of Shielding (10.0.44)",
        "type": "script",
        "img": "icons/svg/dice-target.svg",
        "scope": "global",
        "command": "if (args[0].tag!== \"TargetOnUse\") return;\nif (!workflow.item.name.includes(\"Magic Missile\")) return;\nworkflow.damageItem.hpDamage = 0;",
        "sort": 0,
        "ownership": {
          "default": 3
        },
        "flags": {},
        "_stats": {
          "systemId": null,
          "systemVersion": null,
          "coreVersion": null,
          "createdTime": null,
          "modifiedTime": null,
          "lastModifiedBy": null
        },
        "author": "ffUVCzLexh57kZfU",
        "_id": null,
        "folder": null
      }
    },
    "cf": {
      "id": "temp_mxc6kjqa6kp"
    },
    "midiProperties": {
      "confirmTargets": "default",
      "autoFailFriendly": false,
      "autoSaveFriendly": false,
      "critOther": false,
      "offHandWeapon": false,
      "magicdam": false,
      "magiceffect": false,
      "noConcentrationCheck": false,
      "toggleEffect": false,
      "ignoreTotalCover": false,
      "idr": false,
      "idi": false,
      "idv": false,
      "ida": false
    },
    "midi-qol": {
      "rollAttackPerTarget": "default",
      "itemCondition": "",
      "effectCondition": "",
      "reactionCondition": "",
      "otherCondition": "",
      "AoETargetType": "any",
      "AoETargetTypeIncludeSelf": true,
      "autoTarget": "default",
      "removeAttackDamageButtons": "default"
    },
    "tidy5e-sheet": {
      "section": "",
      "actionSection": ""
    }
  },
  "_stats": {
    "compendiumSource": null,
    "duplicateSource": null,
    "coreVersion": "13.337",
    "systemId": "dnd5e",
    "systemVersion": "4.2.2",
    "createdTime": 1738555836908,
    "modifiedTime": 1738555836908,
    "lastModifiedBy": "Zl1BOUaPLwDEujaL",
    "exportSource": null
  },
  "folder": "5Ok9Jbl5nOokCkqf",
  "_id": "dn8r51bPROedPcJC",
  "sort": 400000,
  "ownership": {
    "default": 0,
    "Zl1BOUaPLwDEujaL": 3
  },
  "_key": "!items!dn8r51bPROedPcJC"
}
