{
  "name": "Darkvision (60 ft)",
  "type": "feat",
  "img": "icons/magic/perception/eye-ringed-glow-angry-red.webp",
  "effects": [
    {
      "_id": "pd6hlVPQZRpF1J40",
      "flags": {
        "dae": {
          "stackable": "none",
          "specialDuration": [],
          "transfer": true,
          "selfTarget": false,
          "selfTargetAlways": false,
          "durationExpression": "",
          "macroRepeat": "none"
        },
        "dfreds-convenient-effects": {
          "description": ""
        },
        "core": {},
        "ActiveAuras": {
          "isAura": false,
          "aura": "None",
          "radius": "undefined",
          "alignment": "",
          "type": "",
          "ignoreSelf": false,
          "height": false,
          "hidden": false,
          "displayTemp": false,
          "hostile": false,
          "onlyOnce": false
        }
      },
      "changes": [
        {
          "key": "ATL.sight.visionMode",
          "mode": 5,
          "value": "darkvision",
          "priority": 40
        },
        {
          "key": "ATL.sight.range",
          "mode": 5,
          "value": "60",
          "priority": 40
        },
        {
          "key": "ATL.sight.enabled",
          "mode": 5,
          "value": "true",
          "priority": 20
        }
      ],
      "disabled": false,
      "duration": {
        "startTime": null,
        "seconds": null,
        "combat": null,
        "rounds": null,
        "turns": null,
        "startRound": null,
        "startTurn": null
      },
      "origin": "Item.wV8s4Ac0vXNTK2bZ",
      "tint": "#ffffff",
      "transfer": true,
      "name": "Darkvision (60 ft)",
      "description": "",
      "statuses": [],
      "_stats": {
        "compendiumSource": null,
        "duplicateSource": null,
        "coreVersion": "13.337",
        "systemId": "dnd5e",
        "systemVersion": "4.2.2",
        "createdTime": null,
        "modifiedTime": null,
        "lastModifiedBy": null,
        "exportSource": null
      },
      "img": "icons/magic/perception/eye-ringed-glow-angry-red.webp",
      "type": "base",
      "system": {},
      "sort": 0,
      "_key": "!items.effects!ZjehXF1SpB8TFAO6.pd6hlVPQZRpF1J40"
    }
  ],
  "flags": {
    "magicitems": {
      "enabled": false,
      "equipped": false,
      "attuned": false,
      "charges": "0",
      "chargeType": "c1",
      "destroy": false,
      "destroyFlavorText": "reaches 0 charges: it crumbles into ashes and is destroyed.",
      "rechargeable": false,
      "recharge": "0",
      "rechargeType": "t1",
      "rechargeUnit": "r1",
      "sorting": "l"
    },
    "betterRolls5e": {
      "critRange": {
        "value": null
      },
      "critDamage": {
        "value": ""
      },
      "quickDesc": {
        "value": true,
        "altValue": true
      },
      "quickProperties": {
        "value": true,
        "altValue": true
      },
      "quickOther": {
        "value": true,
        "altValue": true
      },
      "quickFlavor": {
        "value": true,
        "altValue": true
      }
    },
    "core": {},
    "scene-packer": {
      "hash": "df990fe569177ade44694c44bd09338f5479460f",
      "sourceId": "Scene.QPG20BLsHJ7eug0j.Token.oVrCZ9PC5oIeMFYf.Item.QALqgiV656MBVWxb"
    },
    "cf": {
      "id": "temp_1xw0kahfmt1"
    },
    "midiProperties": {
      "confirmTargets": "default",
      "autoFailFriendly": false,
      "autoSaveFriendly": false,
      "critOther": false,
      "offHandWeapon": false,
      "magicdam": false,
      "magiceffect": false,
      "noConcentrationCheck": false,
      "toggleEffect": false,
      "ignoreTotalCover": false,
      "idr": false,
      "idi": false,
      "idv": false,
      "ida": false
    },
    "midi-qol": {
      "rollAttackPerTarget": "default",
      "itemCondition": "",
      "effectCondition": "",
      "reactionCondition": "",
      "AoETargetType": "any",
      "AoETargetTypeIncludeSelf": true,
      "autoTarget": "default",
      "removeAttackDamageButtons": "default",
      "otherCondition": ""
    },
    "tidy5e-sheet": {
      "section": "",
      "actionSection": ""
    }
  },
  "system": {
    "description": {
      "value": "<p>You touch a willing creature to grant it the ability to see in the dark. For the duration, that creature has darkvision out to a range of 60 feet.</p><p></p><p>DAE: Uses ATL to setup darkvision of 60 feet.</p>",
      "chat": ""
    },
    "source": {
      "custom": "",
      "revision": 1,
      "rules": "2024"
    },
    "uses": {
      "max": "",
      "spent": 0,
      "recovery": []
    },
    "type": {
      "value": "",
      "subtype": ""
    },
    "requirements": "",
    "activities": {},
    "identifier": "darkvision-60-ft",
    "enchant": {},
    "prerequisites": {
      "level": null,
      "repeatable": false
    },
    "properties": [],
    "advancement": [],
    "cover": null,
    "crewed": false
  },
  "_stats": {
    "compendiumSource": "Compendium.ATL.Token Lighting Premade.P5C2lbFfOm8YQqrz",
    "duplicateSource": null,
    "coreVersion": "13.337",
    "systemId": "dnd5e",
    "systemVersion": "4.2.2",
    "createdTime": 1738555835389,
    "modifiedTime": 1738555835389,
    "lastModifiedBy": "Zl1BOUaPLwDEujaL",
    "exportSource": null
  },
  "folder": "fZIl4G4qj3C894LI",
  "_id": "ZjehXF1SpB8TFAO6",
  "sort": 2900000,
  "ownership": {
    "default": 0,
    "Zl1BOUaPLwDEujaL": 3
  },
  "_key": "!items!ZjehXF1SpB8TFAO6"
}
