{
  "name": "Fey Ancestry (Elven)",
  "type": "feat",
  "img": "icons/creatures/mammals/elk-moose-marked-green.webp",
  "effects": [
    {
      "_id": "xztigTbGnhDHw7of",
      "flags": {
        "dae": {
          "stackable": "none",
          "specialDuration": [],
          "macroRepeat": "none",
          "transfer": true,
          "selfTarget": false,
          "selfTargetAlways": false,
          "durationExpression": ""
        },
        "ActiveAuras": {
          "isAura": false,
          "ignoreSelf": false,
          "hidden": false,
          "height": false,
          "aura": "None",
          "radius": null
        },
        "core": {},
        "dfreds-convenient-effects": {
          "description": ""
        }
      },
      "changes": [
        {
          "key": "system.traits.ci.value",
          "mode": 0,
          "value": "unconscious",
          "priority": 20
        },
        {
          "key": "system.traits.languages.value",
          "mode": 2,
          "value": "elvish",
          "priority": 20
        },
        {
          "key": "flags.midi-qol.onUseMacroName",
          "mode": 0,
          "value": "ItemMacro, preTargetSave",
          "priority": 20
        }
      ],
      "disabled": false,
      "duration": {
        "startTime": null,
        "seconds": null,
        "combat": null,
        "rounds": null,
        "turns": null,
        "startRound": null,
        "startTurn": null
      },
      "origin": "Item.NpbMHuHRuBS3ntJA",
      "tint": "#ffffff",
      "transfer": true,
      "name": "Fey Ancestry",
      "description": "",
      "statuses": [],
      "_stats": {
        "compendiumSource": null,
        "duplicateSource": null,
        "coreVersion": "13.337",
        "systemId": "dnd5e",
        "systemVersion": "4.2.2",
        "createdTime": null,
        "modifiedTime": null,
        "lastModifiedBy": null,
        "exportSource": null
      },
      "img": "icons/creatures/mammals/elk-moose-marked-green.webp",
      "type": "base",
      "system": {},
      "sort": 0,
      "_key": "!items.effects!j5XfwKQG9CkyrzxH.xztigTbGnhDHw7of"
    }
  ],
  "flags": {
    "magicitems": {
      "enabled": false,
      "equipped": false,
      "attuned": false,
      "charges": "0",
      "chargeType": "c1",
      "destroy": false,
      "destroyFlavorText": "reaches 0 charges: it crumbles into ashes and is destroyed.",
      "rechargeable": false,
      "recharge": "0",
      "rechargeType": "t1",
      "rechargeUnit": "r1",
      "sorting": "l"
    },
    "cf": {
      "id": "temp_1xw0kahfmt1",
      "color": "#000000"
    },
    "core": {},
    "scene-packer": {
      "hash": "9c60a6d851cd358db6d49808b419fc13e62f8a86",
      "sourceId": "Item.BzJwRKxexNHA6sfb"
    },
    "itemacro": {
      "macro": {
        "name": "Fey Ancestry (Elven) (10.0.44)",
        "type": "script",
        "img": "icons/svg/dice-target.svg",
        "scope": "global",
        "command": "const {item: attackingItem, saveDetails: saveDetails} = wsorkflow;\nconsole.error(attackingItem, saveDetails)\nif (!attackingItem || !saveDetails) return;\nif (attackingItem.effects.some(eff=>eff.label === \"Charmed\") \n    || attackingItem.effects.some(eff=>eff.changes.some(c=>[\"Charmed (CE)\", \"Charmed\"].some(con=>c.value.includes(con)))))\n    saveDetails.advantage = true;",
        "sort": 0,
        "ownership": {
          "default": 0
        },
        "flags": {},
        "_stats": {
          "systemId": null,
          "systemVersion": null,
          "coreVersion": null,
          "createdTime": null,
          "modifiedTime": null,
          "lastModifiedBy": null
        }
      }
    },
    "midiProperties": {
      "confirmTargets": "default",
      "autoFailFriendly": false,
      "autoSaveFriendly": false,
      "critOther": false,
      "offHandWeapon": false,
      "magicdam": false,
      "magiceffect": false,
      "noConcentrationCheck": false,
      "toggleEffect": false,
      "ignoreTotalCover": false,
      "idr": false,
      "idi": false,
      "idv": false,
      "ida": false
    },
    "midi-qol": {
      "rollAttackPerTarget": "default",
      "itemCondition": "",
      "effectCondition": "",
      "reactionCondition": "",
      "otherCondition": "",
      "AoETargetType": "any",
      "AoETargetTypeIncludeSelf": true,
      "autoTarget": "default",
      "removeAttackDamageButtons": "default"
    },
    "tidy5e-sheet": {
      "section": "",
      "actionSection": ""
    }
  },
  "system": {
    "description": {
      "value": "<p>You have advantage on saving throws against being charmed, and magic can’t put you to sleep.</p><p><strong>midi-qol</strong>: any save from an item roll that applies an effect called Charmed or has Charmed as an change effect value (i.e. a statusEffect Charmed) will be made at advantage.</p>",
      "chat": ""
    },
    "source": {
      "custom": "PHB pg. 23, 39",
      "revision": 1,
      "rules": "2024"
    },
    "uses": {
      "max": "",
      "spent": 0,
      "recovery": []
    },
    "type": {
      "value": "",
      "subtype": ""
    },
    "requirements": "Elf, Half-Elf",
    "activities": {},
    "identifier": "fey-ancestry-elven-10044",
    "enchant": {},
    "prerequisites": {
      "level": null,
      "repeatable": false
    },
    "properties": [],
    "advancement": [],
    "cover": null,
    "crewed": false
  },
  "_stats": {
    "compendiumSource": "Compendium.midi-qol.midiqol-sample-items.cP5iLvmJGafqZOKB",
    "duplicateSource": null,
    "coreVersion": "13.337",
    "systemId": "dnd5e",
    "systemVersion": "4.2.2",
    "createdTime": 1738555835389,
    "modifiedTime": 1738555835389,
    "lastModifiedBy": "Zl1BOUaPLwDEujaL",
    "exportSource": null
  },
  "folder": "fZIl4G4qj3C894LI",
  "_id": "j5XfwKQG9CkyrzxH",
  "sort": 2200000,
  "ownership": {
    "default": 0,
    "Zl1BOUaPLwDEujaL": 3
  },
  "_key": "!items!j5XfwKQG9CkyrzxH"
}
