{
  "name": "Hold Person v4",
  "type": "spell",
  "img": "icons/magic/control/debuff-chains-ropes-purple.webp",
  "effects": [
    {
      "_id": "t3cxabtojf2E7WRI",
      "changes": [
        {
          "key": "flags.midi-qol.OverTime",
          "mode": 5,
          "value": "turn=end,\nrollType=save,\nsaveAbility=wis,\nsaveDC=@attributes.spelldc,\nlabel=Hold Person",
          "priority": 20
        },
        {
          "key": "macro.tokenMagic",
          "mode": 0,
          "value": "mantle-of-madness",
          "priority": 20
        }
      ],
      "disabled": false,
      "duration": {
        "startTime": null,
        "seconds": null,
        "combat": null,
        "rounds": null,
        "turns": null,
        "startRound": null,
        "startTurn": null
      },
      "origin": "Item.fTpCyyR0tWfOR0S3",
      "transfer": false,
      "flags": {
        "dae": {
          "stackable": "none",
          "macroRepeat": "none",
          "specialDuration": [],
          "transfer": false,
          "durationExpression": "",
          "selfTarget": false,
          "selfTargetAlways": false,
          "enableCondition": "",
          "disableCondition": "",
          "disableIncapacitated": false,
          "dontApply": false,
          "showIcon": false
        },
        "dnd5e-helpers": {
          "rest-effect": "Ignore"
        },
        "ActiveAuras": {
          "isAura": false,
          "aura": "None",
          "radius": "",
          "alignment": "",
          "type": "",
          "ignoreSelf": false,
          "height": false,
          "hidden": false,
          "hostile": false,
          "onlyOnce": false,
          "displayTemp": false,
          "nameOverride": "",
          "customCheck": "",
          "wallsBlock": "system"
        },
        "core": {
          "overlay": false
        }
      },
      "tint": "#ffffff",
      "name": "Hold Person",
      "description": "",
      "statuses": [
        "paralyzed"
      ],
      "_stats": {
        "compendiumSource": null,
        "duplicateSource": null,
        "coreVersion": "13.337",
        "systemId": "dnd5e",
        "systemVersion": "4.2.2",
        "createdTime": null,
        "modifiedTime": null,
        "lastModifiedBy": null,
        "exportSource": null
      },
      "img": "icons/magic/control/debuff-chains-ropes-purple.webp",
      "type": "base",
      "system": {},
      "sort": 0,
      "_key": "!items.effects!fH3YVHeQyNcOQ3yP.t3cxabtojf2E7WRI"
    }
  ],
  "flags": {
    "core": {},
    "enhancedcombathud": {
      "set1p": false,
      "set2p": false,
      "set3p": false
    },
    "midi-qol": {
      "onUseMacroName": "",
      "effectActivation": true,
      "forceCEOff": true,
      "rollAttackPerTarget": "default",
      "itemCondition": "",
      "reactionCondition": "",
      "otherCondition": "",
      "effectCondition": "",
      "removeAttackDamageButtons": "default"
    },
    "cf": {
      "id": "temp_0hvf80hl1zcf",
      "color": "#000000"
    },
    "midiProperties": {
      "nodam": false,
      "fulldam": false,
      "halfdam": false,
      "rollOther": false,
      "critOther": false,
      "magicdam": false,
      "magiceffect": false,
      "concentration": false,
      "toggleEffect": false,
      "confirmTargets": "default",
      "autoFailFriendly": false,
      "autoSaveFriendly": false,
      "offHandWeapon": false,
      "noConcentrationCheck": false,
      "ignoreTotalCover": false,
      "idr": false,
      "idi": false,
      "idv": false,
      "ida": false
    },
    "dnd5e": {
      "persistSourceMigration": true,
      "migratedProperties": [
        "vocal",
        "somatic",
        "material",
        "concentration"
      ],
      "dependents": [
        {
          "uuid": "Scene.GO63mgFDMhBfPVWf.Token.y8rDGEEuPTa8Oz4m.Actor.2W8ip8j0hvK2pQ7V.ActiveEffect.NxxYwMu18V5RMGEw"
        }
      ],
      "riders": {
        "activity": []
      }
    },
    "tidy5e-sheet": {
      "section": "",
      "actionSection": ""
    }
  },
  "system": {
    "description": {
      "value": "<p>Choose a humanoid that you can see within range. The target must succeed on a Wisdom saving throw or be paralyzed for the duration. At the end of each of its turns, the target can make another Wisdom saving throw. On a success, the spell ends on the target.</p>\n<p><strong>Higher Levels. </strong>When you cast this spell using a spell slot of 3rd level or higher, you can target one additional humanoid for each slot level above 2nd. The humanoids must be within 30 feet of each other when you target them.<br /><br />Assumes Convenient Effects</p>",
      "chat": ""
    },
    "source": {
      "custom": "PHB pg. 251",
      "revision": 1,
      "rules": "2024"
    },
    "activation": {
      "type": "action",
      "condition": "[\"human\", \"humanoid\"].includes(raceOrType)",
      "value": 1
    },
    "duration": {
      "value": "1",
      "units": "minute"
    },
    "target": {
      "affects": {
        "type": "creature",
        "count": "1",
        "choice": false,
        "special": ""
      },
      "template": {
        "units": "",
        "contiguous": false,
        "type": ""
      }
    },
    "range": {
      "value": "60",
      "units": "ft",
      "special": ""
    },
    "uses": {
      "max": "",
      "spent": 0,
      "recovery": []
    },
    "ability": "",
    "level": 2,
    "school": "enc",
    "materials": {
      "value": "A small, straight piece of iron",
      "consumed": false,
      "cost": 0,
      "supply": 0
    },
    "preparation": {
      "mode": "prepared",
      "prepared": false
    },
    "activities": {
      "dnd5eactivity000": {
        "_id": "dnd5eactivity000",
        "type": "save",
        "activation": {
          "type": "action",
          "value": null,
          "override": false
        },
        "consumption": {
          "targets": [],
          "scaling": {
            "allowed": false,
            "max": ""
          },
          "spellSlot": true
        },
        "description": {
          "chatFlavor": ""
        },
        "duration": {
          "units": "inst",
          "concentration": false,
          "override": false
        },
        "effects": [
          {
            "_id": "t3cxabtojf2E7WRI",
            "onSave": false
          }
        ],
        "range": {
          "override": false
        },
        "target": {
          "prompt": true,
          "template": {
            "contiguous": false,
            "units": "ft"
          },
          "affects": {
            "choice": false
          },
          "override": false
        },
        "uses": {
          "spent": 0,
          "max": "",
          "recovery": []
        },
        "damage": {
          "onSave": "half",
          "parts": [],
          "critical": {
            "allow": false
          }
        },
        "save": {
          "ability": [
            "wis"
          ],
          "dc": {
            "calculation": "spellcasting",
            "formula": "99"
          }
        },
        "sort": 0,
        "useConditionText": "",
        "effectConditionText": "",
        "macroData": {
          "name": "",
          "command": ""
        },
        "ignoreTraits": {
          "idi": false,
          "idr": false,
          "idv": false,
          "ida": false
        },
        "midiProperties": {
          "forceDialog": false,
          "confirmTargets": "default",
          "automationOnly": false,
          "identifier": "",
          "ignoreTraits": [],
          "triggeredActivityId": "none",
          "triggeredActivityConditionText": "",
          "triggeredActivityTargets": "targets",
          "triggeredActivityRollAs": "self",
          "autoTargetType": "any",
          "autoTargetAction": "default",
          "otherActivityCompatible": true
        }
      }
    },
    "identifier": "hold-person-10013",
    "properties": [],
    "sourceClass": "paladin"
  },
  "_stats": {
    "compendiumSource": "Compendium.dnd5e.spells.3Lo9boi7P2ro6QV4",
    "duplicateSource": null,
    "coreVersion": "13.337",
    "systemId": "dnd5e",
    "systemVersion": "4.2.2",
    "createdTime": 1738555840264,
    "modifiedTime": 1738928928455,
    "lastModifiedBy": "Zl1BOUaPLwDEujaL",
    "exportSource": null
  },
  "folder": "qF3UYnzAAbVavYSR",
  "_id": "fH3YVHeQyNcOQ3yP",
  "sort": 400000,
  "ownership": {
    "default": 0,
    "Zl1BOUaPLwDEujaL": 3
  },
  "_key": "!items!fH3YVHeQyNcOQ3yP"
}
