{
  "name": "Items",
  "sorting": "a",
  "folder": null,
  "type": "Item",
  "_id": "5Ok9Jbl5nOokCkqf",
  "description": "",
  "sort": 100000,
  "color": null,
  "flags": {},
  "_stats": {
    "compendiumSource": null,
    "duplicateSource": null,
    "coreVersion": "12.331",
    "systemId": "dnd5e",
    "systemVersion": "4.2.2",
    "createdTime": 1738555836817,
    "modifiedTime": 1738930186762,
    "lastModifiedBy": "Zl1BOUaPLwDEujaL"
  },
  "_key": "!folders!5Ok9Jbl5nOokCkqf"
}
