{
  "name": "Mortar",
  "type": "weapon",
  "img": "icons/weapons/guns/gun-blunderbuss-bronze.webp",
  "effects": [],
  "folder": null,
  "sort": 112500,
  "flags": {
    "core": {
      "sourceId": "Compendium.dnd5e.items.setcTdSZ09rmsqMn"
    },
    "favtab": {
      "isFavorite": true
    },
    "midi-qol": {
      "effectActivation": false,
      "fumbleThreshold": null,
      "rollAttackPerTarget": "always",
      "removeAttackDamageButtons": "default",
      "itemCondition": "",
      "otherCondition": "",
      "effectCondition": "",
      "reactionCondition": ""
    },
    "midiProperties": {
      "nodam": false,
      "fulldam": false,
      "halfdam": false,
      "rollOther": false,
      "critOther": false,
      "magicdam": false,
      "magiceffect": false,
      "concentration": false,
      "toggleEffect": false,
      "autoFailFriendly": false,
      "autoSaveFriendly": false,
      "offHandWeapon": false,
      "noConcentrationCheck": false,
      "ignoreTotalCover": false,
      "confirmTargets": "default",
      "idr": false,
      "idi": false,
      "idv": false,
      "ida": false
    },
    "magicitems": {
      "enabled": false,
      "equipped": false,
      "attuned": false,
      "charges": "0",
      "chargeType": "c1",
      "destroy": false,
      "destroyFlavorText": "reaches 0 charges: it crumbles into ashes and is destroyed.",
      "rechargeable": false,
      "recharge": "0",
      "rechargeType": "t1",
      "rechargeUnit": "r1",
      "sorting": "l",
      "default": ""
    },
    "scene-packer": {
      "hash": "69606498d1195bede4da825a138124d038cd17a2"
    },
    "dnd5e": {
      "persistSourceMigration": true,
      "riders": {
        "activity": [],
        "effect": []
      },
      "last": {
        "dnd5eactivity000": {
          "attackMode": "oneHanded",
          "damageType": {
            "0": "bludgeoning"
          }
        }
      }
    },
    "tidy5e-sheet": {
      "section": "",
      "actionSection": ""
    }
  },
  "system": {
    "description": {
      "value": "<p><em>Whether through demonic blessing, celestial bequeathment, crazed experiment, or skillful craft, this weapon has been enhanced to bring more bloodshed by the bearer.</em></p>\n<p>You have a bonus to attack and damage rolls made with this magic weapon.</p>",
      "chat": ""
    },
    "source": {
      "custom": "DMG pg. 213",
      "revision": 1,
      "rules": "2014"
    },
    "quantity": 1,
    "weight": {
      "value": 2,
      "units": "lb"
    },
    "price": {
      "value": 16000,
      "denomination": "gp"
    },
    "attunement": "",
    "rarity": "veryRare",
    "identified": true,
    "cover": null,
    "crewed": false,
    "range": {
      "value": null,
      "long": null,
      "units": "ft",
      "reach": null
    },
    "uses": {
      "max": "",
      "spent": 0,
      "recovery": []
    },
    "damage": {
      "versatile": {
        "number": null,
        "denomination": null,
        "bonus": "",
        "types": [],
        "custom": {
          "enabled": true,
          "formula": "1d10 + @mod +3"
        },
        "scaling": {
          "mode": "",
          "number": null,
          "formula": ""
        }
      },
      "base": {
        "number": 1,
        "denomination": 8,
        "bonus": "",
        "types": [
          "bludgeoning"
        ],
        "custom": {
          "enabled": false,
          "formula": ""
        },
        "scaling": {
          "mode": "",
          "number": null,
          "formula": ""
        }
      }
    },
    "armor": {
      "value": 10
    },
    "hp": {
      "value": 0,
      "max": 0,
      "dt": null,
      "conditions": ""
    },
    "properties": [
      "fir"
    ],
    "magicalBonus": 3,
    "unidentified": {
      "description": ""
    },
    "type": {
      "value": "martialR",
      "baseItem": ""
    },
    "container": null,
    "proficient": null,
    "activities": {
      "dnd5eactivity000": {
        "_id": "dnd5eactivity000",
        "type": "attack",
        "activation": {
          "type": "action",
          "value": 1,
          "condition": "",
          "override": false
        },
        "consumption": {
          "targets": [],
          "scaling": {
            "allowed": false,
            "max": ""
          },
          "spellSlot": true
        },
        "description": {
          "chatFlavor": ""
        },
        "duration": {
          "concentration": false,
          "value": "",
          "units": "inst",
          "special": "",
          "override": false
        },
        "effects": [],
        "range": {
          "units": "ft",
          "special": "",
          "override": true,
          "value": "135"
        },
        "target": {
          "template": {
            "count": "",
            "contiguous": false,
            "type": "",
            "size": "10",
            "width": "",
            "height": "",
            "units": "ft"
          },
          "affects": {
            "count": "",
            "type": "",
            "choice": false,
            "special": ""
          },
          "prompt": false,
          "override": false
        },
        "uses": {
          "spent": 0,
          "max": "",
          "recovery": []
        },
        "attack": {
          "ability": "",
          "bonus": "",
          "critical": {
            "threshold": null
          },
          "flat": false,
          "type": {
            "value": "ranged",
            "classification": "weapon"
          }
        },
        "damage": {
          "critical": {
            "bonus": ""
          },
          "includeBase": true,
          "parts": []
        },
        "sort": 0,
        "useConditionText": "",
        "effectConditionText": "",
        "macroData": {
          "name": "",
          "command": ""
        },
        "ignoreTraits": {
          "idi": false,
          "idr": false,
          "idv": false,
          "ida": false
        },
        "midiProperties": {
          "ignoreTraits": [],
          "triggeredActivityId": "none",
          "triggeredActivityConditionText": "",
          "triggeredActivityTargets": "targets",
          "triggeredActivityRollAs": "self",
          "forceDialog": false,
          "confirmTargets": "never",
          "automationOnly": true,
          "otherActivityCompatible": true,
          "identifier": "",
          "autoTargetType": "any",
          "autoTargetAction": "default",
          "displayActivityName": false,
          "rollMode": "default",
          "chooseEffects": false
        },
        "attackMode": "oneHanded",
        "ammunition": "",
        "otherActivityId": "none",
        "otherActivityUuid": "",
        "isOverTimeFlag": false,
        "overTimeProperties": {
          "saveRemoves": true,
          "preRemoveConditionText": "",
          "postRemoveConditionText": ""
        },
        "name": "",
        "useConditionReason": ""
      },
      "BmRZ3AholclLxurQ": {
        "type": "utility",
        "_id": "BmRZ3AholclLxurQ",
        "sort": 0,
        "activation": {
          "type": "action",
          "value": null,
          "override": false,
          "condition": ""
        },
        "consumption": {
          "scaling": {
            "allowed": false
          },
          "spellSlot": true,
          "targets": []
        },
        "description": {
          "chatFlavor": ""
        },
        "duration": {
          "units": "inst",
          "concentration": false,
          "override": false
        },
        "effects": [],
        "range": {
          "override": true,
          "units": "ft",
          "special": "",
          "value": "120"
        },
        "target": {
          "template": {
            "contiguous": false,
            "units": "ft",
            "type": "sphere",
            "size": "10",
            "count": ""
          },
          "affects": {
            "choice": false,
            "type": "creature",
            "count": "",
            "special": ""
          },
          "override": false,
          "prompt": true
        },
        "uses": {
          "spent": 0,
          "recovery": [],
          "max": ""
        },
        "roll": {
          "prompt": false,
          "visible": false,
          "name": "",
          "formula": ""
        },
        "useConditionText": "",
        "useConditionReason": "",
        "effectConditionText": "",
        "macroData": {
          "name": "",
          "command": ""
        },
        "ignoreTraits": {
          "idi": false,
          "idr": false,
          "idv": false,
          "ida": false
        },
        "midiProperties": {
          "ignoreTraits": [],
          "triggeredActivityId": "dnd5eactivity000",
          "triggeredActivityConditionText": "",
          "triggeredActivityTargets": "targets",
          "triggeredActivityRollAs": "self",
          "forceDialog": false,
          "confirmTargets": "default",
          "autoTargetType": "any",
          "autoTargetAction": "default",
          "automationOnly": false,
          "otherActivityCompatible": false,
          "identifier": "",
          "displayActivityName": false,
          "rollMode": "default",
          "chooseEffects": false
        },
        "isOverTimeFlag": false,
        "overTimeProperties": {
          "saveRemoves": true,
          "preRemoveConditionText": "",
          "postRemoveConditionText": ""
        },
        "name": "Activate"
      }
    },
    "identifier": "warhammer-3",
    "ammunition": {},
    "attuned": false,
    "equipped": false,
    "mastery": ""
  },
  "ownership": {
    "default": 0,
    "ZDFhNjE2NDMyYTY1": 3,
    "Zl1BOUaPLwDEujaL": 3
  },
  "_stats": {
    "compendiumSource": "Compendium.dnd5e.items.setcTdSZ09rmsqMn",
    "duplicateSource": null,
    "coreVersion": "12.331",
    "systemId": "dnd5e",
    "systemVersion": "4.3.6",
    "createdTime": 1741354304574,
    "modifiedTime": 1741354304598,
    "lastModifiedBy": "Zl1BOUaPLwDEujaL"
  },
  "_id": "UmBIRg3TkHiTc6CX",
  "_key": "!items!UmBIRg3TkHiTc6CX"
}
