{
  "name": "Toll the Dead v4",
  "type": "spell",
  "img": "icons/magic/water/orb-ice-glow.webp",
  "effects": [],
  "flags": {
    "ddbimporter": {
      "id": 138274,
      "definitionId": 14615,
      "entityTypeId": 435869154,
      "dndbeyond": {
        "lookup": "generic",
        "lookupName": "generic",
        "level": null,
        "castAtLevel": null
      },
      "sources": [
        {
          "sourceId": 27,
          "pageNumber": 169,
          "sourceType": 1
        }
      ],
      "tags": [
        "Damage"
      ]
    },
    "betterRolls5e": {
      "quickVersatile": {
        "altValue": true
      },
      "quickCharges": {
        "value": {
          "use": true,
          "resource": true
        },
        "altValue": {
          "use": true,
          "resource": true
        }
      }
    },
    "midi-qol": {
      "effectActivation": false,
      "onUseMacroName": "[preDamageRoll]ItemMacro",
      "rollAttackPerTarget": "default",
      "removeAttackDamageButtons": "default",
      "itemCondition": "",
      "reactionCondition": "",
      "otherCondition": "",
      "effectCondition": ""
    },
    "midiProperties": {
      "nodam": false,
      "fulldam": false,
      "halfdam": false,
      "rollOther": false,
      "critOther": false,
      "magicdam": false,
      "magiceffect": false,
      "concentration": false,
      "toggleEffect": false,
      "confirmTargets": "default",
      "autoFailFriendly": false,
      "autoSaveFriendly": false,
      "offHandWeapon": false,
      "noConcentrationCheck": false,
      "ignoreTotalCover": false,
      "idr": false,
      "idi": false,
      "idv": false,
      "ida": false
    },
    "core": {
      "sourceId": "Compendium.world.ddb-spells.eWALttYghEEA1qOa"
    },
    "scene-packer": {
      "hash": "9f7ff19882d5754133397d9eb2657cd5ce210bd1",
      "sourceId": "Item.CHNM01gLo3kddfju"
    },
    "itemacro": {
      "macro": {
        "data": {
          "_id": null,
          "name": "Toll the Dead",
          "type": "script",
          "author": "devnIbfBHb74U9Zv",
          "img": "icons/svg/dice-target.svg",
          "scope": "global",
          "command": "if (args[0].macroPass === \"preDamageRoll\") {\n    const target = await fromUuid(args[0].targetUuids[0]);\n    const needsD12 = target.actor.data.data.attributes.hp.value < target.actor.data.data.attributes.hp.max;\n    const theItem = await fromUuid(args[0].uuid);\n    let formula = theItem.data.data.damage.parts[0][0];\n    if (needsD12) \n        formula = formula.replace(\"d8\", \"d12\")\n    else \n        formula = formula.replace(\"d12\", \"d8\");\n    theItem.data.data.damage.parts[0][0] = formula;\n}",
          "folder": null,
          "sort": 0,
          "permission": {
            "default": 0
          },
          "flags": {}
        },
        "name": "Toll the Dead 10.0.10",
        "type": "script",
        "img": "icons/svg/dice-target.svg",
        "scope": "global",
        "command": "const version = \"10.0.10\";\ntry {\n    if (args[0].macroPass === \"preDamageRoll\") {\n        const target = await fromUuid(args[0].targetUuids[0]);\n        const needsD12 = target.actor.system.attributes.hp.value < target.actor.system.attributes.hp.max;\n        const theItem = await fromUuid(args[0].uuid);\n        let formula = theItem.system.damage.parts[0][0];\n        let scalingFormula = theItem.system.scaling.formula;\n        if (needsD12) {\n            formula = formula.replace(\"d8\", \"d12\");\n            if (scalingFormula) scalingFormula = scalingFormula.replace(\"d8\", \"d12\");\n        }\n        else  {\n            formula = formula.replace(\"d12\", \"d8\");\n            if (scalingFormula) scalingFormula = scalingFormula.replace(\"d12\", \"d8\");\n        }\n        theItem.system.scaling.formula = scalingFormula;\n        theItem.system.damage.parts[0][0] = formula;\n    }\n} catch (err) {\n    console.error(`${args[0].itemData.name} - Toll The Dead ${version}`, err);\n}",
        "sort": 0,
        "ownership": {
          "default": 0
        },
        "flags": {},
        "_stats": {
          "systemId": null,
          "systemVersion": null,
          "coreVersion": null,
          "createdTime": null,
          "modifiedTime": null,
          "lastModifiedBy": null
        }
      }
    },
    "cf": {
      "id": "temp_0hvf80hl1zcf"
    },
    "dnd5e": {
      "persistSourceMigration": true,
      "migratedProperties": [
        "vocal",
        "somatic"
      ]
    }
  },
  "system": {
    "description": {
      "value": "<p class=\"Core-Styles_Core-Body\">You will need to add the description yourself.</p>",
      "chat": "<p class=\"Core-Styles_Core-Body\">You point at one creature you can see within range, and the sound of a dolorous bell fills the air around it for a moment. The target must succeed on a Wisdom saving throw or take 1d8 necrotic damage. If the target is missing any of its hit points, it instead takes 1d12 necrotic damage.</p>\n<p class=\"Core-Styles_Core-Body\">The spell’s damage increases by one die when you reach 5th level (2d8 or 2d12), 11th level (3d8 or 3d12), and 17th level (4d8 or 4d12).</p>"
    },
    "source": {
      "custom": "Xanathar's Guide to Everything pg 169",
      "revision": 1,
      "rules": "2024"
    },
    "activation": {
      "type": "action",
      "condition": "",
      "value": 1
    },
    "duration": {
      "value": "",
      "units": "inst"
    },
    "target": {
      "affects": {
        "type": "creature",
        "count": "1",
        "choice": false,
        "special": ""
      },
      "template": {
        "units": "",
        "contiguous": false,
        "type": ""
      }
    },
    "range": {
      "value": "60",
      "units": "ft",
      "special": ""
    },
    "uses": {
      "max": "",
      "spent": 0,
      "recovery": []
    },
    "ability": "",
    "level": 0,
    "school": "nec",
    "materials": {
      "value": "",
      "consumed": false,
      "cost": 0,
      "supply": 0
    },
    "preparation": {
      "mode": "prepared",
      "prepared": false
    },
    "activities": {
      "dnd5eactivity000": {
        "_id": "dnd5eactivity000",
        "type": "save",
        "activation": {
          "type": "action",
          "value": null,
          "override": false
        },
        "consumption": {
          "targets": [],
          "scaling": {
            "allowed": false,
            "max": ""
          },
          "spellSlot": true
        },
        "description": {
          "chatFlavor": ""
        },
        "duration": {
          "units": "inst",
          "concentration": false,
          "override": false
        },
        "effects": [],
        "range": {
          "override": false
        },
        "target": {
          "prompt": true,
          "template": {
            "contiguous": false,
            "units": "ft"
          },
          "affects": {
            "choice": false
          },
          "override": false
        },
        "uses": {
          "spent": 0,
          "max": "",
          "recovery": []
        },
        "damage": {
          "onSave": "none",
          "parts": [
            {
              "number": 1,
              "denomination": 12,
              "bonus": "",
              "types": [
                "necrotic"
              ],
              "custom": {
                "enabled": false,
                "formula": ""
              },
              "scaling": {
                "mode": "whole",
                "number": 1,
                "formula": ""
              }
            }
          ],
          "critical": {
            "allow": false
          }
        },
        "save": {
          "ability": [
            "wis"
          ],
          "dc": {
            "calculation": "spellcasting",
            "formula": ""
          }
        },
        "sort": 0,
        "useConditionText": "",
        "effectConditionText": "",
        "macroData": {
          "name": "",
          "command": ""
        },
        "ignoreTraits": {
          "idi": false,
          "idr": false,
          "idv": false,
          "ida": false
        },
        "midiProperties": {
          "forceDialog": false,
          "confirmTargets": "default",
          "automationOnly": false,
          "identifier": ""
        }
      }
    },
    "identifier": "toll-the-dead-10013",
    "properties": []
  },
  "_stats": {
    "compendiumSource": "Compendium.world.ddb-spells.eWALttYghEEA1qOa",
    "duplicateSource": null,
    "coreVersion": "12.331",
    "systemId": "dnd5e",
    "systemVersion": "4.1.2",
    "createdTime": 1734180122481,
    "modifiedTime": 1734180122481,
    "lastModifiedBy": "Zl1BOUaPLwDEujaL"
  },
  "folder": "qF3UYnzAAbVavYSR",
  "_id": "8fwps8vswKYJQ2In",
  "sort": 700000,
  "ownership": {
    "default": 0,
    "Zl1BOUaPLwDEujaL": 3
  },
  "_key": "!items!8fwps8vswKYJQ2In"
}
